EEE3530/Project1-1 Combinational Logic /2021142180_designfiles/simulation/qsim/pr1.msim.vcd
$comment
	File created using the following command:
		vcd file pr1.msim.vcd -direction
$end
$date
	Wed Apr 05 15:48:05 2023
$end
$version
	ModelSim Version 10.1d
$end
$timescale
	1ps
$end
$scope module pr1_vlg_vec_tst $end
$var reg 4 ! INPUT [3:0] $end
$var wire 1 " X $end
$var wire 1 # sampler $end
$scope module i1 $end
$var wire 1 $ gnd $end
$var wire 1 % vcc $end
$var wire 1 & unknown $end
$var tri1 1 ' devclrn $end
$var tri1 1 ( devpor $end
$var tri1 1 ) devoe $end
$var wire 1 * ~QUARTUS_CREATED_GND~I_combout $end
$var wire 1 + INPUT[1]~input_o $end
$var wire 1 , INPUT[0]~input_o $end
$var wire 1 - INPUT[2]~input_o $end
$var wire 1 . INPUT[3]~input_o $end
$var wire 1 / inst10~0_combout $end
$upscope $end
$upscope $end
$enddefinitions $end
#0
$dumpvars
b0 !
1"
x#
0$
1%
x&
1'
1(
1)
0*
0+
0,
0-
0.
1/
$end
#10000
b1 !
1,
0#
#20000
b11 !
b10 !
0,
1+
1#
#30000
b11 !
1,
0#
0/
0"
#40000
b111 !
b101 !
b100 !
0,
0+
1-
1#
1/
1"
#50000
b101 !
1,
0#
0/
0"
#60000
b111 !
b110 !
0,
1+
1#
#70000
b111 !
1,
0#
#80000
b1111 !
b1011 !
b1001 !
b1000 !
0,
0+
0-
1.
1#
1/
1"
#90000
b1001 !
1,
0#
0/
0"
#100000
b1011 !
b1010 !
0,
1+
1#
#110000
b1011 !
1,
0#
#120000
b1111 !
b1101 !
b1100 !
0,
0+
1-
1#
#130000
b1101 !
1,
0#
#140000
b1111 !
b1110 !
0,
1+
1#
#150000
b1111 !
1,
0#
#160000
b111 !
b11 !
b1 !
b0 !
0,
0+
0-
0.
1#
1/
1"
#170000
b1 !
1,
0#
#180000
b11 !
b10 !
0,
1+
1#
#190000
b11 !
1,
0#
0/
0"
#200000
b111 !
b101 !
b100 !
0,
0+
1-
1#
1/
1"
#210000
b101 !
1,
0#
0/
0"
#220000
b111 !
b110 !
0,
1+
1#
#230000
b111 !
1,
0#
#240000
b1111 !
b1011 !
b1001 !
b1000 !
0,
0+
0-
1.
1#
1/
1"
#250000
b1001 !
1,
0#
0/
0"
#260000
b1011 !
b1010 !
0,
1+
1#
#270000
b1011 !
1,
0#
#280000
b1111 !
b1101 !
b1100 !
0,
0+
1-
1#
#290000
b1101 !
1,
0#
#300000
b1111 !
b1110 !
0,
1+
1#
#310000
b1111 !
1,
0#
#320000
b111 !
b11 !
b1 !
b0 !
0,
0+
0-
0.
1#
1/
1"
#330000
b1 !
1,
0#
#340000
b11 !
b10 !
0,
1+
1#
#350000
b11 !
1,
0#
0/
0"
#360000
b111 !
b101 !
b100 !
0,
0+
1-
1#
1/
1"
#370000
b101 !
1,
0#
0/
0"
#380000
b111 !
b110 !
0,
1+
1#
#390000
b111 !
1,
0#
#400000
b1111 !
b1011 !
b1001 !
b1000 !
0,
0+
0-
1.
1#
1/
1"
#410000
b1001 !
1,
0#
0/
0"
#420000
b1011 !
b1010 !
0,
1+
1#
#430000
b1011 !
1,
0#
#440000
b1111 !
b1101 !
b1100 !
0,
0+
1-
1#
#450000
b1101 !
1,
0#
#460000
b1111 !
b1110 !
0,
1+
1#
#470000
b1111 !
1,
0#
#480000
b111 !
b11 !
b1 !
b0 !
0,
0+
0-
0.
1#
1/
1"
#490000
b1 !
1,
0#
#500000
b11 !
b10 !
0,
1+
1#
#510000
b11 !
1,
0#
0/
0"
#520000
b111 !
b101 !
b100 !
0,
0+
1-
1#
1/
1"
#530000
b101 !
1,
0#
0/
0"
#540000
b111 !
b110 !
0,
1+
1#
#550000
b111 !
1,
0#
#560000
b1111 !
b1011 !
b1001 !
b1000 !
0,
0+
0-
1.
1#
1/
1"
#570000
b1001 !
1,
0#
0/
0"
#580000
b1011 !
b1010 !
0,
1+
1#
#590000
b1011 !
1,
0#
#600000
b1111 !
b1101 !
b1100 !
0,
0+
1-
1#
#610000
b1101 !
1,
0#
#620000
b1111 !
b1110 !
0,
1+
1#
#630000
b1111 !
1,
0#
#640000
b111 !
b11 !
b1 !
b0 !
0,
0+
0-
0.
1#
1/
1"
#650000
b1 !
1,
0#
#660000
b11 !
b10 !
0,
1+
1#
#670000
b11 !
1,
0#
0/
0"
#680000
b111 !
b101 !
b100 !
0,
0+
1-
1#
1/
1"
#690000
b101 !
1,
0#
0/
0"
#700000
b111 !
b110 !
0,
1+
1#
#710000
b111 !
1,
0#
#720000
b1111 !
b1011 !
b1001 !
b1000 !
0,
0+
0-
1.
1#
1/
1"
#730000
b1001 !
1,
0#
0/
0"
#740000
b1011 !
b1010 !
0,
1+
1#
#750000
b1011 !
1,
0#
#760000
b1111 !
b1101 !
b1100 !
0,
0+
1-
1#
#770000
b1101 !
1,
0#
#780000
b1111 !
b1110 !
0,
1+
1#
#790000
b1111 !
1,
0#
#800000
b111 !
b11 !
b1 !
b0 !
0,
0+
0-
0.
1#
1/
1"
#810000
b1 !
1,
0#
#820000
b11 !
b10 !
0,
1+
1#
#830000
b11 !
1,
0#
0/
0"
#840000
b111 !
b101 !
b100 !
0,
0+
1-
1#
1/
1"
#850000
b101 !
1,
0#
0/
0"
#860000
b111 !
b110 !
0,
1+
1#
#870000
b111 !
1,
0#
#880000
b1111 !
b1011 !
b1001 !
b1000 !
0,
0+
0-
1.
1#
1/
1"
#890000
b1001 !
1,
0#
0/
0"
#900000
b1011 !
b1010 !
0,
1+
1#
#910000
b1011 !
1,
0#
#920000
b1111 !
b1101 !
b1100 !
0,
0+
1-
1#
#930000
b1101 !
1,
0#
#940000
b1111 !
b1110 !
0,
1+
1#
#950000
b1111 !
1,
0#
#960000
b111 !
b11 !
b1 !
b0 !
0,
0+
0-
0.
1#
1/
1"
#970000
b1 !
1,
0#
#980000
b11 !
b10 !
0,
1+
1#
#990000
b11 !
1,
0#
0/
0"
